CPU/Blocos ULA/Somador 4 bits/simulation/qsim/somador4bits.msim.vcd
$comment
	File created using the following command:
		vcd file somador4bits.msim.vcd -direction
$end
$date
	Tue Sep 20 15:20:30 2022
$end
$version
	ModelSim Version 10.5b
$end
$timescale
	1ps
$end

$scope module somador4bits_vlg_vec_tst $end
$var reg 1 ! A0 $end
$var reg 1 " A1 $end
$var reg 1 # A2 $end
$var reg 1 $ A3 $end
$var reg 1 % B0 $end
$var reg 1 & B1 $end
$var reg 1 ' B2 $end
$var reg 1 ( B3 $end
$var wire 1 ) S0 $end
$var wire 1 * S1 $end
$var wire 1 + S2 $end
$var wire 1 , S3 $end

$scope module i1 $end
$var wire 1 - gnd $end
$var wire 1 . vcc $end
$var wire 1 / unknown $end
$var tri1 1 0 devclrn $end
$var tri1 1 1 devpor $end
$var tri1 1 2 devoe $end
$var wire 1 3 ~QUARTUS_CREATED_GND~I_combout $end
$var wire 1 4 B0~input_o $end
$var wire 1 5 A0~input_o $end
$var wire 1 6 inst|inst~combout $end
$var wire 1 7 B1~input_o $end
$var wire 1 8 A1~input_o $end
$var wire 1 9 inst1|inst1~combout $end
$var wire 1 : A2~input_o $end
$var wire 1 ; B2~input_o $end
$var wire 1 < inst3|inst1~combout $end
$var wire 1 = inst1|inst2~0_combout $end
$var wire 1 > B3~input_o $end
$var wire 1 ? A3~input_o $end
$var wire 1 @ inst4|inst1~combout $end
$upscope $end
$upscope $end
$enddefinitions $end
#0
$dumpvars
0!
0"
0#
0$
0%
0&
0'
0(
0)
0*
0+
0,
0-
1.
x/
10
11
12
03
04
05
06
07
08
09
0:
0;
0<
0=
0>
0?
0@
$end
#500000
1!
15
16
1)
#1000000
1"
0!
18
05
19
06
0)
1*
#1500000
1#
1!
1:
15
1<
16
1)
1+
#2000000
1$
0"
0!
1?
08
05
09
06
1@
1,
0)
0*
#2500000
1%
1!
14
15
19
1*
#3000000
1&
0#
1"
0!
17
0:
18
05
1=
09
16
1)
0*
#3500000
1'
1!
1;
15
0<
19
06
0@
0,
0)
1*
0+
#4000000
1(
0$
0"
0!
1>
0?
08
05
0=
1<
16
1)
1+
1@
1,
#4500000
1#
1!
1:
15
1=
09
06
0@
0,
0)
0*
#5000000
0%
1"
0!
04
18
05
#5500000
1!
15
16
1)
#6000000
0&
1$
0#
0"
0!
07
1?
0:
08
05
0=
06
1@
1,
0)
0@
0,
#6500000
1!
15
16
1)
#7000000
0'
1"
0!
0;
18
05
0<
19
06
0)
1*
0+
#7500000
1%
1#
1!
14
1:
15
1=
09
0*
1@
1,
#8000000
0(
0$
0"
0!
0>
0?
08
05
0=
1<
16
1)
1+
0@
0,
#8500000
1!
15
19
06
0)
1*
#9000000
1&
0#
1"
0!
17
0:
18
05
1=
09
16
1)
0*
#9500000
1!
15
19
06
0)
1*
#10000000
0%
1$
0"
0!
04
1?
08
05
0=
0<
1@
1,
0+
#10500000
1'
1#
1!
1;
1:
15
16
0@
0,
1)
#11000000
1"
0!
18
05
1=
1<
09
06
0)
0*
1+
#11500000
1!
15
16
1)
#12000000
1(
0&
0$
0#
0"
0!
1>
07
0?
0:
08
05
0=
06
0)
1@
1,
#12500000
1%
1!
14
15
19
1*
#13000000
1"
0!
18
05
16
1)
#13500000
1#
1!
1:
15
1=
09
06
0@
0,
0)
0*
#14000000
0'
1$
0"
0!
0;
1?
08
05
0=
16
1@
1,
1)
0@
0,
#14500000
1!
15
19
06
0)
1*
#15000000
1&
0%
0#
1"
0!
17
04
0:
18
05
1=
09
0*
#15500000
1!
15
16
1)
#16000000
0(
0$
0"
0!
0>
0?
08
05
0=
0<
19
06
0)
1*
0+
#16500000
1#
1!
1:
15
1<
16
1)
1+
#17000000
1"
0!
18
05
1=
0<
09
06
0)
0*
0+
1@
1,
#17500000
1'
1%
1!
1;
14
15
1<
19
1*
1+
#18000000
0&
1$
0#
0"
0!
07
1?
0:
08
05
0=
09
16
0@
0,
1)
0*
1@
1,
#18500000
1!
15
19
06
0)
1*
#19000000
1"
0!
18
05
16
1)
#19500000
1#
1!
1:
15
1=
09
06
0@
0,
0)
0*
#20000000
1(
0%
0$
0"
0!
1>
04
0?
08
05
0=
0<
0+
#20500000
1!
15
16
1)
#21000000
0'
1&
0#
1"
0!
0;
17
0:
18
05
1=
1<
06
1@
1,
0)
1+
#21500000
1!
15
16
1)
#22000000
1$
0"
0!
1?
08
05
0=
0<
19
06
0@
0,
0)
1*
0+
#22500000
1%
1#
1!
14
1:
15
1=
09
0*
1@
1,
#23000000
1"
0!
18
05
16
1)
#23500000
1!
15
19
06
0)
1*
#24000000
0(
0&
0$
0#
0"
0!
0>
07
0?
0:
08
05
0=
09
16
0@
0,
1)
0*
#24500000
1'
1!
1;
15
1<
19
06
0)
1*
1+
#25000000
0%
1"
0!
04
18
05
#25500000
1#
1!
1:
15
0<
16
1@
1,
1)
0+
#26000000
1$
0"
0!
1?
08
05
09
06
0@
0,
0)
0*
#26500000
1!
15
16
1)
#27000000
1&
0#
1"
0!
17
0:
18
05
1=
06
1@
1,
0)
0@
0,
#27500000
1%
1!
14
15
19
1*
#28000000
1(
0'
0$
0"
0!
1>
0;
0?
08
05
0=
16
1@
1,
1)
#28500000
1#
1!
1:
15
1=
09
06
0)
0*
0@
0,
#29000000
1"
0!
18
05
16
1)
#29500000
1!
15
19
06
0)
1*
#30000000
0&
0%
1$
0#
0"
0!
07
04
1?
0:
08
05
0=
09
0*
#30500000
1!
15
16
1)
#31000000
1"
0!
18
05
19
06
0)
1*
#31500000
1'
1#
1!
1;
1:
15
16
1@
1,
1)
#32000000
0(
0$
0"
0!
0>
0?
08
05
09
06
0)
0*
#32500000
1%
1!
14
15
19
1*
#33000000
1&
0#
1"
0!
17
0:
18
05
1=
09
16
0@
0,
1)
0*
1@
1,
#33500000
1!
15
19
06
0)
1*
#34000000
1$
0"
0!
1?
08
05
0=
1<
16
0@
0,
1)
1+
1@
1,
#34500000
1#
1!
1:
15
1=
09
06
0@
0,
0)
0*
#35000000
0'
0%
1"
0!
0;
04
18
05
0<
0+
#35500000
1!
15
16
1)
#36000000
1(
0&
0$
0#
0"
0!
1>
07
0?
0:
08
05
0=
06
1@
1,
0)
#36500000
1!
15
16
1)
#37000000
1"
0!
18
05
19
06
0)
1*
#37500000
1%
1#
1!
14
1:
15
1=
09
0*
0@
0,
#38000000
1$
0"
0!
1?
08
05
0=
1<
16
1@
1,
1)
1+
0@
0,
#38500000
1'
1!
1;
15
0<
19
06
1@
1,
0)
1*
0+
#39000000
1&
0#
1"
0!
17
0:
18
05
1=
09
16
0@
0,
1)
0*
1@
1,
#39500000
1!
15
19
06
0)
1*
#40000000
0(
0%
0$
0"
0!
0>
04
0?
08
05
0=
1<
1+
0@
0,
#40500000
1#
1!
1:
15
0<
16
1@
1,
1)
0+
#41000000
1"
0!
18
05
1=
1<
09
06
0)
0*
1+
#41500000
1!
15
16
1)
#42000000
0'
0&
1$
0#
0"
0!
0;
07
1?
0:
08
05
0=
0<
06
0)
0+
#42500000
1%
1!
14
15
19
1*
#43000000
1"
0!
18
05
16
1)
#43500000
1#
1!
1:
15
1=
09
06
0)
0*
0@
0,
#44000000
1(
0$
0"
0!
1>
0?
08
05
0=
1<
16
1)
1+
1@
1,
#44500000
1!
15
19
06
0)
1*
#45000000
1&
0%
0#
1"
0!
17
04
0:
18
05
1=
09
0*
#45500000
1'
1!
1;
15
0<
16
0@
0,
1)
0+
#46000000
1$
0"
0!
1?
08
05
0=
1<
19
06
1@
1,
0)
1*
1+
0@
0,
#46500000
1#
1!
1:
15
0<
16
1@
1,
1)
0+
#47000000
1"
0!
18
05
1=
1<
09
06
0)
0*
1+
#47500000
1%
1!
14
15
19
1*
#48000000
0(
0&
0$
0#
0"
0!
0>
07
0?
0:
08
05
0=
09
16
1)
0*
0@
0,
#48500000
1!
15
19
06
0)
1*
#49000000
0'
1"
0!
0;
18
05
0<
16
1)
0+
#49500000
1#
1!
1:
15
1=
09
06
0)
0*
1@
1,
#50000000
0%
1$
0"
0!
04
1?
08
05
0=
1<
0@
0,
1+
1@
1,
#50500000
1!
15
16
1)
#51000000
1&
0#
1"
0!
17
0:
18
05
1=
06
0)
#51500000
1!
15
16
1)
#52000000
1(
0$
0"
0!
1>
0?
08
05
0=
0<
19
06
0)
1*
0+
#52500000
1'
1%
1#
1!
1;
14
1:
15
1=
1<
09
0@
0,
0*
1+
#53000000
1"
0!
18
05
16
1)
#53500000
1!
15
19
06
0)
1*
#54000000
0&
1$
0#
0"
0!
07
1?
0:
08
05
0=
09
16
1@
1,
1)
0*
0@
0,
#54500000
1!
15
19
06
0)
1*
#55000000
0%
1"
0!
04
18
05
#55500000
1#
1!
1:
15
0<
16
1@
1,
1)
0+
#56000000
0(
0'
0$
0"
0!
0>
0;
0?
08
05
1<
09
06
0@
0,
0)
0*
1+
#56500000
1!
15
16
1)
#57000000
1&
0#
1"
0!
17
0:
18
05
1=
06
0)
#57500000
1%
1!
14
15
19
1*
#58000000
1$
0"
0!
1?
08
05
0=
0<
16
1@
1,
1)
0+
#58500000
1#
1!
1:
15
1=
09
06
0)
0*
0@
0,
#59000000
1"
0!
18
05
16
1)
#59500000
1'
1!
1;
15
1<
19
06
0)
1*
1+
#60000000
1(
0&
0%
0$
0#
0"
0!
1>
07
04
0?
0:
08
05
0=
09
0*
1@
1,
#60500000
1!
15
16
1)
#61000000
1"
0!
18
05
19
06
0)
1*
#61500000
1#
1!
1:
15
0<
16
0@
0,
1)
0+
#62000000
1$
0"
0!
1?
08
05
09
06
1@
1,
0)
0*
#62500000
1%
1!
14
15
19
1*
#63000000
0'
1&
0#
1"
0!
0;
17
0:
18
05
1=
1<
09
16
0@
0,
1)
0*
1+
#63500000
1!
15
19
06
0)
1*
#64000000
0(
0$
0"
0!
0>
0?
08
05
0=
0<
16
1)
0+
#64500000
1#
1!
1:
15
1=
09
06
0)
0*
1@
1,
#65000000
0%
1"
0!
04
18
05
#65500000
1!
15
16
1)
#66000000
0&
1$
0#
0"
0!
07
1?
0:
08
05
0=
06
0)
#66500000
1'
1!
1;
15
1<
16
1)
1+
#67000000
1"
0!
18
05
19
06
0)
1*
#67500000
1%
1#
1!
14
1:
15
1=
09
0@
0,
0*
#68000000
1(
0$
0"
0!
1>
0?
08
05
0=
0<
16
1)
0+
#68500000
1!
15
19
06
0)
1*
#69000000
1&
0#
1"
0!
17
0:
18
05
1=
09
16
1@
1,
1)
0*
0@
0,
#69500000
1!
15
19
06
0)
1*
#70000000
0'
0%
1$
0"
0!
0;
04
1?
08
05
0=
#70500000
1#
1!
1:
15
1<
16
1)
1+
#71000000
1"
0!
18
05
1=
0<
09
06
0)
0*
0+
1@
1,
#71500000
1!
15
16
1)
#72000000
0(
0&
0$
0#
0"
0!
0>
07
0?
0:
08
05
0=
06
0@
0,
0)
#72500000
1%
1!
14
15
19
1*
#73000000
1"
0!
18
05
16
1)
#73500000
1'
1#
1!
1;
1:
15
1=
1<
09
06
1@
1,
0)
0*
1+
#74000000
1$
0"
0!
1?
08
05
0=
0<
16
0@
0,
1)
0+
#74500000
1!
15
19
06
0)
1*
#75000000
1&
0%
0#
1"
0!
17
04
0:
18
05
1=
09
1@
1,
0*
0@
0,
#75500000
1!
15
16
1)
#76000000
1(
0$
0"
0!
1>
0?
08
05
0=
1<
19
06
0)
1*
1+
1@
1,
#76500000
1#
1!
1:
15
0<
16
0@
0,
1)
0+
#77000000
0'
1"
0!
0;
18
05
1=
09
06
1@
1,
0)
0*
0@
0,
#77500000
1%
1!
14
15
19
1*
#78000000
0&
1$
0#
0"
0!
07
1?
0:
08
05
0=
09
16
1)
0*
#78500000
1!
15
19
06
0)
1*
#79000000
1"
0!
18
05
16
1)
#79500000
1#
1!
1:
15
1=
09
06
0)
0*
1@
1,
#80000000
0(
0%
0$
0"
0!
0>
04
0?
08
05
0=
1<
1+
0@
0,
#80500000
1'
1!
1;
15
0<
16
1@
1,
1)
0+
#81000000
1&
0#
1"
0!
17
0:
18
05
1=
06
0@
0,
0)
1@
1,
#81500000
1!
15
16
1)
#82000000
1$
0"
0!
1?
08
05
0=
1<
19
06
0@
0,
0)
1*
1+
1@
1,
#82500000
1%
1#
1!
14
1:
15
1=
09
0@
0,
0*
#83000000
1"
0!
18
05
16
1)
#83500000
1!
15
19
06
0)
1*
#84000000
1(
0'
0&
0$
0#
0"
0!
1>
0;
07
0?
0:
08
05
0=
0<
09
16
1@
1,
1)
0*
0+
#84500000
1!
15
19
06
0)
1*
#85000000
0%
1"
0!
04
18
05
#85500000
1#
1!
1:
15
1<
16
1)
1+
#86000000
1$
0"
0!
1?
08
05
09
06
0@
0,
0)
0*
#86500000
1!
15
16
1)
#87000000
1&
0#
1"
0!
17
0:
18
05
1=
06
0)
#87500000
1'
1%
1!
1;
14
15
0<
19
1@
1,
1*
0+
#88000000
0(
0$
0"
0!
0>
0?
08
05
0=
1<
16
1)
1+
0@
0,
#88500000
1#
1!
1:
15
1=
09
06
1@
1,
0)
0*
#89000000
1"
0!
18
05
16
1)
#89500000
1!
15
19
06
0)
1*
#90000000
0&
0%
1$
0#
0"
0!
07
04
1?
0:
08
05
0=
09
0@
0,
0*
1@
1,
#90500000
1!
15
16
1)
#91000000
0'
1"
0!
0;
18
05
0<
19
06
0)
1*
0+
#91500000
1#
1!
1:
15
1<
16
1)
1+
#92000000
1(
0$
0"
0!
1>
0?
08
05
09
06
0)
0*
#92500000
1%
1!
14
15
19
1*
#93000000
1&
0#
1"
0!
17
0:
18
05
1=
09
16
1)
0*
#93500000
1!
15
19
06
0)
1*
#94000000
1$
0"
0!
1?
08
05
0=
0<
16
0@
0,
1)
0+
#94500000
1'
1#
1!
1;
1:
15
1=
1<
09
06
1@
1,
0)
0*
1+
#95000000
0%
1"
0!
04
18
05
#95500000
1!
15
16
1)
#96000000
0(
0&
0$
0#
0"
0!
0>
07
0?
0:
08
05
0=
06
0)
0@
0,
#96500000
1!
15
16
1)
#97000000
1"
0!
18
05
19
06
0)
1*
#97500000
1%
1#
1!
14
1:
15
1=
09
1@
1,
0*
#98000000
0'
1$
0"
0!
0;
1?
08
05
0=
16
0@
0,
1)
1@
1,
#98500000
1!
15
19
06
0)
1*
#99000000
1&
0#
1"
0!
17
0:
18
05
1=
09
16
1)
0*
#99500000
1!
15
19
06
0)
1*
