CPU/Demultiplex/simulation/qsim/Demultiplex.msim.vcd
$comment
	File created using the following command:
		vcd file Demultiplex.msim.vcd -direction
$end
$date
	Tue Oct 18 20:32:19 2022
$end
$version
	ModelSim Version 10.5b
$end
$timescale
	1ps
$end

$scope module Demultiplex_vlg_vec_tst $end
$var reg 4 ! A [3:0] $end
$var reg 1 " RgIn_13 $end
$var wire 1 # R1 [3] $end
$var wire 1 $ R1 [2] $end
$var wire 1 % R1 [1] $end
$var wire 1 & R1 [0] $end
$var wire 1 ' R2 [3] $end
$var wire 1 ( R2 [2] $end
$var wire 1 ) R2 [1] $end
$var wire 1 * R2 [0] $end

$scope module i1 $end
$var wire 1 + gnd $end
$var wire 1 , vcc $end
$var wire 1 - unknown $end
$var tri1 1 . devclrn $end
$var tri1 1 / devpor $end
$var tri1 1 0 devoe $end
$var wire 1 1 ~QUARTUS_CREATED_GND~I_combout $end
$var wire 1 2 A[3]~input_o $end
$var wire 1 3 RgIn_13~input_o $end
$var wire 1 4 inst7~combout $end
$var wire 1 5 A[2]~input_o $end
$var wire 1 6 inst6~combout $end
$var wire 1 7 A[1]~input_o $end
$var wire 1 8 inst5~combout $end
$var wire 1 9 A[0]~input_o $end
$var wire 1 : inst4~combout $end
$var wire 1 ; inst3~combout $end
$var wire 1 < inst2~combout $end
$var wire 1 = inst1~combout $end
$var wire 1 > inst~combout $end
$upscope $end
$upscope $end
$enddefinitions $end
#0
$dumpvars
b0 !
0"
0&
0%
0$
0#
0*
0)
0(
0'
0+
1,
x-
1.
1/
10
01
02
03
04
05
06
07
08
09
0:
0;
0<
0=
0>
$end
#500000
b1000 !
12
14
1#
#1000000
b1100 !
b100 !
15
02
04
16
1$
0#
#1500000
b110 !
b1110 !
17
12
14
18
1%
1#
#2000000
b1111 !
b1011 !
b11 !
19
05
02
04
06
1:
1&
0$
0#
#2500000
1"
b1011 !
13
12
1;
1>
1=
0:
08
0%
0&
1)
1*
1'
#3000000
b1001 !
b1101 !
b101 !
07
15
02
0;
1<
0=
0)
1(
0'
#3500000
b1101 !
12
1;
1'
#4000000
b1100 !
b1000 !
b0 !
09
05
02
0;
0<
0>
0*
0(
0'
#4500000
b10 !
b1010 !
17
12
1;
1=
1)
1'
#5000000
0"
b1110 !
b110 !
03
15
02
0;
16
0=
18
1%
0)
1$
0'
#5500000
b1110 !
12
14
1#
#6000000
b1111 !
b1101 !
b1001 !
b1 !
19
07
05
02
04
06
08
1:
1&
0%
0$
0#
#6500000
b1001 !
12
14
1#
#7000000
b1101 !
b101 !
15
02
04
16
1$
0#
#7500000
1"
b111 !
b1111 !
13
17
12
1;
1=
1>
1<
0:
06
0$
0&
1(
1*
1)
1'
#8000000
b1110 !
b1010 !
b10 !
09
05
02
0;
0<
0>
0*
0(
0'
#8500000
b1010 !
12
1;
1'
#9000000
b1000 !
b1100 !
b100 !
07
15
02
0;
1<
0=
0)
1(
0'
#9500000
b1100 !
12
1;
1'
#10000000
0"
b1101 !
b1001 !
b1 !
03
19
05
02
0;
0<
1:
1&
0(
0'
#10500000
b11 !
b1011 !
17
12
14
18
1%
1#
#11000000
b1111 !
b111 !
15
02
04
16
1$
0#
#11500000
b1111 !
12
14
1#
#12000000
b1110 !
b1100 !
b1000 !
b0 !
09
07
05
02
04
06
08
0:
0&
0%
0$
0#
#12500000
1"
b1000 !
13
12
1;
1'
#13000000
b1100 !
b100 !
15
02
0;
1<
1(
0'
#13500000
b110 !
b1110 !
17
12
1;
1=
1)
1'
#14000000
b1111 !
b1011 !
b11 !
19
05
02
0;
0<
1>
1*
0(
0'
#14500000
b1011 !
12
1;
1'
#15000000
0"
b1001 !
b1101 !
b101 !
03
07
15
02
0;
16
0=
0>
1:
1&
0*
0)
1$
0'
#15500000
b1101 !
12
14
1#
#16000000
b1100 !
b1000 !
b0 !
09
05
02
04
06
0:
0&
0$
0#
#16500000
b10 !
b1010 !
17
12
14
18
1%
1#
#17000000
b1110 !
b110 !
15
02
04
16
1$
0#
#17500000
1"
b1110 !
13
12
1;
1=
1<
08
06
0$
0%
1(
1)
1'
#18000000
b1111 !
b1101 !
b1001 !
b1 !
19
07
05
02
0;
0<
0=
1>
1*
0)
0(
0'
#18500000
b1001 !
12
1;
1'
#19000000
b1101 !
b101 !
15
02
0;
1<
1(
0'
#19500000
b111 !
b1111 !
17
12
1;
1=
1)
1'
#20000000
0"
b1110 !
b1010 !
b10 !
03
09
05
02
0;
0<
0>
0=
18
1%
0)
0*
0(
0'
#20500000
b1010 !
12
14
1#
#21000000
b1000 !
b1100 !
b100 !
07
15
02
04
16
08
0%
1$
0#
#21500000
b1100 !
12
14
1#
#22000000
b1101 !
b1001 !
b1 !
19
05
02
04
06
1:
1&
0$
0#
#22500000
1"
b11 !
b1011 !
13
17
12
1;
1=
1>
0:
0&
1*
1)
1'
#23000000
b1111 !
b111 !
15
02
0;
1<
1(
0'
#23500000
b1111 !
12
1;
1'
#24000000
b1110 !
b1100 !
b1000 !
b0 !
09
07
05
02
0;
0<
0=
0>
0*
0)
0(
0'
#24500000
b1000 !
12
1;
1'
#25000000
0"
b1100 !
b100 !
03
15
02
0;
16
1$
0'
#25500000
b110 !
b1110 !
17
12
14
18
1%
1#
#26000000
b1111 !
b1011 !
b11 !
19
05
02
04
06
1:
1&
0$
0#
#26500000
b1011 !
12
14
1#
#27000000
b1001 !
b1101 !
b101 !
07
15
02
04
16
08
0%
1$
0#
#27500000
1"
b1101 !
13
12
1;
1>
1<
0:
06
0$
0&
1(
1*
1'
#28000000
b1100 !
b1000 !
b0 !
09
05
02
0;
0<
0>
0*
0(
0'
#28500000
b10 !
b1010 !
17
12
1;
1=
1)
1'
#29000000
b1110 !
b110 !
15
02
0;
1<
1(
0'
#29500000
b1110 !
12
1;
1'
#30000000
0"
b1111 !
b1101 !
b1001 !
b1 !
03
19
07
05
02
0;
0<
0=
1:
1&
0)
0(
0'
#30500000
b1001 !
12
14
1#
#31000000
b1101 !
b101 !
15
02
04
16
1$
0#
#31500000
b111 !
b1111 !
17
12
14
18
1%
1#
#32000000
b1110 !
b1010 !
b10 !
09
05
02
04
06
0:
0&
0$
0#
#32500000
1"
b1010 !
13
12
1;
1=
08
0%
1)
1'
#33000000
b1000 !
b1100 !
b100 !
07
15
02
0;
1<
0=
0)
1(
0'
#33500000
b1100 !
12
1;
1'
#34000000
b1101 !
b1001 !
b1 !
19
05
02
0;
0<
1>
1*
0(
0'
#34500000
b11 !
b1011 !
17
12
1;
1=
1)
1'
#35000000
0"
b1111 !
b111 !
03
15
02
0;
16
0>
0=
1:
18
1%
1&
0)
0*
1$
0'
#35500000
b1111 !
12
14
1#
#36000000
b1110 !
b1100 !
b1000 !
b0 !
09
07
05
02
04
06
08
0:
0&
0%
0$
0#
#36500000
b1000 !
12
14
1#
#37000000
b1100 !
b100 !
15
02
04
16
1$
0#
#37500000
1"
b110 !
b1110 !
13
17
12
1;
1=
1<
06
0$
1(
1)
1'
#38000000
b1111 !
b1011 !
b11 !
19
05
02
0;
0<
1>
1*
0(
0'
#38500000
b1011 !
12
1;
1'
#39000000
b1001 !
b1101 !
b101 !
07
15
02
0;
1<
0=
0)
1(
0'
#39500000
b1101 !
12
1;
1'
#40000000
0"
b1100 !
b1000 !
b0 !
03
09
05
02
0;
0<
0>
0*
0(
0'
#40500000
b10 !
b1010 !
17
12
14
18
1%
1#
#41000000
b1110 !
b110 !
15
02
04
16
1$
0#
#41500000
b1110 !
12
14
1#
#42000000
b1111 !
b1101 !
b1001 !
b1 !
19
07
05
02
04
06
08
1:
1&
0%
0$
0#
#42500000
1"
b1001 !
13
12
1;
1>
0:
0&
1*
1'
#43000000
b1101 !
b101 !
15
02
0;
1<
1(
0'
#43500000
b111 !
b1111 !
17
12
1;
1=
1)
1'
#44000000
b1110 !
b1010 !
b10 !
09
05
02
0;
0<
0>
0*
0(
0'
#44500000
b1010 !
12
1;
1'
#45000000
0"
b1000 !
b1100 !
b100 !
03
07
15
02
0;
16
0=
0)
1$
0'
#45500000
b1100 !
12
14
1#
#46000000
b1101 !
b1001 !
b1 !
19
05
02
04
06
1:
1&
0$
0#
#46500000
b11 !
b1011 !
17
12
14
18
1%
1#
#47000000
b1111 !
b111 !
15
02
04
16
1$
0#
#47500000
1"
b1111 !
13
12
1;
1>
1=
1<
0:
08
06
0$
0%
0&
1(
1)
1*
1'
#48000000
b1110 !
b1100 !
b1000 !
b0 !
09
07
05
02
0;
0<
0=
0>
0*
0)
0(
0'
#48500000
b1000 !
12
1;
1'
#49000000
b1100 !
b100 !
15
02
0;
1<
1(
0'
#49500000
b110 !
b1110 !
17
12
1;
1=
1)
1'
#50000000
0"
b1111 !
b1011 !
b11 !
03
19
05
02
0;
0<
1:
0=
18
1%
0)
1&
0(
0'
#50500000
b1011 !
12
14
1#
#51000000
b1001 !
b1101 !
b101 !
07
15
02
04
16
08
0%
1$
0#
#51500000
b1101 !
12
14
1#
#52000000
b1100 !
b1000 !
b0 !
09
05
02
04
06
0:
0&
0$
0#
#52500000
1"
b10 !
b1010 !
13
17
12
1;
1=
1)
1'
#53000000
b1110 !
b110 !
15
02
0;
1<
1(
0'
#53500000
b1110 !
12
1;
1'
#54000000
b1111 !
b1101 !
b1001 !
b1 !
19
07
05
02
0;
0<
0=
1>
1*
0)
0(
0'
#54500000
b1001 !
12
1;
1'
#55000000
0"
b1101 !
b101 !
03
15
02
0;
16
0>
1:
1&
0*
1$
0'
#55500000
b111 !
b1111 !
17
12
14
18
1%
1#
#56000000
b1110 !
b1010 !
b10 !
09
05
02
04
06
0:
0&
0$
0#
#56500000
b1010 !
12
14
1#
#57000000
b1000 !
b1100 !
b100 !
07
15
02
04
16
08
0%
1$
0#
#57500000
1"
b1100 !
13
12
1;
1<
06
0$
1(
1'
#58000000
b1101 !
b1001 !
b1 !
19
05
02
0;
0<
1>
1*
0(
0'
#58500000
b11 !
b1011 !
17
12
1;
1=
1)
1'
#59000000
b1111 !
b111 !
15
02
0;
1<
1(
0'
#59500000
b1111 !
12
1;
1'
#60000000
0"
b1110 !
b1100 !
b1000 !
b0 !
03
09
07
05
02
0;
0<
0=
0>
0*
0)
0(
0'
#60500000
b1000 !
12
14
1#
#61000000
b1100 !
b100 !
15
02
04
16
1$
0#
#61500000
b110 !
b1110 !
17
12
14
18
1%
1#
#62000000
b1111 !
b1011 !
b11 !
19
05
02
04
06
1:
1&
0$
0#
#62500000
1"
b1011 !
13
12
1;
1>
1=
0:
08
0%
0&
1)
1*
1'
#63000000
b1001 !
b1101 !
b101 !
07
15
02
0;
1<
0=
0)
1(
0'
#63500000
b1101 !
12
1;
1'
#64000000
b1100 !
b1000 !
b0 !
09
05
02
0;
0<
0>
0*
0(
0'
#64500000
b10 !
b1010 !
17
12
1;
1=
1)
1'
#65000000
0"
b1110 !
b110 !
03
15
02
0;
16
0=
18
1%
0)
1$
0'
#65500000
b1110 !
12
14
1#
#66000000
b1111 !
b1101 !
b1001 !
b1 !
19
07
05
02
04
06
08
1:
1&
0%
0$
0#
#66500000
b1001 !
12
14
1#
#67000000
b1101 !
b101 !
15
02
04
16
1$
0#
#67500000
1"
b111 !
b1111 !
13
17
12
1;
1=
1>
1<
0:
06
0$
0&
1(
1*
1)
1'
#68000000
b1110 !
b1010 !
b10 !
09
05
02
0;
0<
0>
0*
0(
0'
#68500000
b1010 !
12
1;
1'
#69000000
b1000 !
b1100 !
b100 !
07
15
02
0;
1<
0=
0)
1(
0'
#69500000
b1100 !
12
1;
1'
#70000000
0"
b1101 !
b1001 !
b1 !
03
19
05
02
0;
0<
1:
1&
0(
0'
#70500000
b11 !
b1011 !
17
12
14
18
1%
1#
#71000000
b1111 !
b111 !
15
02
04
16
1$
0#
#71500000
b1111 !
12
14
1#
#72000000
b1110 !
b1100 !
b1000 !
b0 !
09
07
05
02
04
06
08
0:
0&
0%
0$
0#
#72500000
1"
b1000 !
13
12
1;
1'
#73000000
b1100 !
b100 !
15
02
0;
1<
1(
0'
#73500000
b110 !
b1110 !
17
12
1;
1=
1)
1'
#74000000
b1111 !
b1011 !
b11 !
19
05
02
0;
0<
1>
1*
0(
0'
#74500000
b1011 !
12
1;
1'
#75000000
0"
b1001 !
b1101 !
b101 !
03
07
15
02
0;
16
0=
0>
1:
1&
0*
0)
1$
0'
#75500000
b1101 !
12
14
1#
#76000000
b1100 !
b1000 !
b0 !
09
05
02
04
06
0:
0&
0$
0#
#76500000
b10 !
b1010 !
17
12
14
18
1%
1#
#77000000
b1110 !
b110 !
15
02
04
16
1$
0#
#77500000
1"
b1110 !
13
12
1;
1=
1<
08
06
0$
0%
1(
1)
1'
#78000000
b1111 !
b1101 !
b1001 !
b1 !
19
07
05
02
0;
0<
0=
1>
1*
0)
0(
0'
#78500000
b1001 !
12
1;
1'
#79000000
b1101 !
b101 !
15
02
0;
1<
1(
0'
#79500000
b111 !
b1111 !
17
12
1;
1=
1)
1'
#80000000
0"
b1110 !
b1010 !
b10 !
03
09
05
02
0;
0<
0>
0=
18
1%
0)
0*
0(
0'
#80500000
b1010 !
12
14
1#
#81000000
b1000 !
b1100 !
b100 !
07
15
02
04
16
08
0%
1$
0#
#81500000
b1100 !
12
14
1#
#82000000
b1101 !
b1001 !
b1 !
19
05
02
04
06
1:
1&
0$
0#
#82500000
1"
b11 !
b1011 !
13
17
12
1;
1=
1>
0:
0&
1*
1)
1'
#83000000
b1111 !
b111 !
15
02
0;
1<
1(
0'
#83500000
b1111 !
12
1;
1'
#84000000
b1110 !
b1100 !
b1000 !
b0 !
09
07
05
02
0;
0<
0=
0>
0*
0)
0(
0'
#84500000
b1000 !
12
1;
1'
#85000000
0"
b1100 !
b100 !
03
15
02
0;
16
1$
0'
#85500000
b110 !
b1110 !
17
12
14
18
1%
1#
#86000000
b1111 !
b1011 !
b11 !
19
05
02
04
06
1:
1&
0$
0#
#86500000
b1011 !
12
14
1#
#87000000
b1001 !
b1101 !
b101 !
07
15
02
04
16
08
0%
1$
0#
#87500000
1"
b1101 !
13
12
1;
1>
1<
0:
06
0$
0&
1(
1*
1'
#88000000
b1100 !
b1000 !
b0 !
09
05
02
0;
0<
0>
0*
0(
0'
#88500000
b10 !
b1010 !
17
12
1;
1=
1)
1'
#89000000
b1110 !
b110 !
15
02
0;
1<
1(
0'
#89500000
b1110 !
12
1;
1'
#90000000
0"
b1111 !
b1101 !
b1001 !
b1 !
03
19
07
05
02
0;
0<
0=
1:
1&
0)
0(
0'
#90500000
b1001 !
12
14
1#
#91000000
b1101 !
b101 !
15
02
04
16
1$
0#
#91500000
b111 !
b1111 !
17
12
14
18
1%
1#
#92000000
b1110 !
b1010 !
b10 !
09
05
02
04
06
0:
0&
0$
0#
#92500000
1"
b1010 !
13
12
1;
1=
08
0%
1)
1'
#93000000
b1000 !
b1100 !
b100 !
07
15
02
0;
1<
0=
0)
1(
0'
#93500000
b1100 !
12
1;
1'
#94000000
b1101 !
b1001 !
b1 !
19
05
02
0;
0<
1>
1*
0(
0'
#94500000
b11 !
b1011 !
17
12
1;
1=
1)
1'
#95000000
0"
b1111 !
b111 !
03
15
02
0;
16
0>
0=
1:
18
1%
1&
0)
0*
1$
0'
#95500000
b1111 !
12
14
1#
#96000000
b1110 !
b1100 !
b1000 !
b0 !
09
07
05
02
04
06
08
0:
0&
0%
0$
0#
#96500000
b1000 !
12
14
1#
#97000000
b1100 !
b100 !
15
02
04
16
1$
0#
#97500000
1"
b110 !
b1110 !
13
17
12
1;
1=
1<
06
0$
1(
1)
1'
#98000000
b1111 !
b1011 !
b11 !
19
05
02
0;
0<
1>
1*
0(
0'
#98500000
b1011 !
12
1;
1'
#99000000
b1001 !
b1101 !
b101 !
07
15
02
0;
1<
0=
0)
1(
0'
#99500000
b1101 !
12
1;
1'
