CPU/ULA/simulation/qsim/ULA.msim.vcd
$comment
	File created using the following command:
		vcd file ULA.msim.vcd -direction
$end
$date
	Wed Oct 19 15:29:35 2022
$end
$version
	ModelSim Version 10.5b
$end
$timescale
	1ps
$end

$scope module ULA_vlg_vec_tst $end
$var reg 4 ! A [3:0] $end
$var reg 4 " B [3:0] $end
$var reg 2 # C [1:0] $end
$var wire 1 $ S [3] $end
$var wire 1 % S [2] $end
$var wire 1 & S [1] $end
$var wire 1 ' S [0] $end

$scope module i1 $end
$var wire 1 ( gnd $end
$var wire 1 ) vcc $end
$var wire 1 * unknown $end
$var tri1 1 + devclrn $end
$var tri1 1 , devpor $end
$var tri1 1 - devoe $end
$var wire 1 . S[3]~output_o $end
$var wire 1 / S[2]~output_o $end
$var wire 1 0 S[1]~output_o $end
$var wire 1 1 S[0]~output_o $end
$var wire 1 2 C[0]~input_o $end
$var wire 1 3 B[2]~input_o $end
$var wire 1 4 C[1]~input_o $end
$var wire 1 5 A[1]~input_o $end
$var wire 1 6 B[1]~input_o $end
$var wire 1 7 A[0]~input_o $end
$var wire 1 8 B[0]~input_o $end
$var wire 1 9 inst7|inst5~0_combout $end
$var wire 1 : A[2]~input_o $end
$var wire 1 ; A[3]~input_o $end
$var wire 1 < B[3]~input_o $end
$var wire 1 = inst7|inst5~1_combout $end
$var wire 1 > inst7|inst5~2_combout $end
$var wire 1 ? inst|inst3|inst1~combout $end
$var wire 1 @ inst3|inst3|inst5~combout $end
$var wire 1 A inst6|inst5~0_combout $end
$var wire 1 B inst5|inst5~0_combout $end
$var wire 1 C inst1|inst5~0_combout $end
$upscope $end
$upscope $end
$enddefinitions $end
#0
$dumpvars
b10 !
b11 "
b0 #
1'
0&
1%
0$
0(
1)
x*
1+
1,
1-
0.
1/
00
11
02
03
04
15
16
07
18
19
0:
0;
0<
0=
0>
1?
1@
1A
0B
1C
$end
#40000
b10 #
14
1B
1>
1.
10
1&
1$
#80000
b11 #
b1 #
12
04
0C
0B
0>
0.
00
01
0'
0&
0$
#120000
b11 #
14
1C
0A
0/
11
1'
0%
#160000
b10 #
b0 #
02
04
1A
1/
1%
#200000
b10 #
14
1B
1>
1.
10
1&
1$
#240000
b11 #
b1 #
12
04
0C
0B
0>
0.
00
01
0'
0&
0$
#280000
b11 #
14
1C
0A
0/
11
1'
0%
#320000
b10 #
b0 #
02
04
1A
1/
1%
#360000
b10 #
14
1B
1>
1.
10
1&
1$
#400000
b11 #
b1 #
12
04
0C
0B
0>
0.
00
01
0'
0&
0$
#440000
b11 #
14
1C
0A
0/
11
1'
0%
#480000
b10 #
b0 #
02
04
1A
1/
1%
#520000
b10 #
14
1B
1>
1.
10
1&
1$
#560000
b11 #
b1 #
12
04
0C
0B
0>
0.
00
01
0'
0&
0$
#600000
b11 #
14
1C
0A
0/
11
1'
0%
#640000
b10 #
b0 #
02
04
1A
1/
1%
#680000
b10 #
14
1B
1>
1.
10
1&
1$
#720000
b11 #
b1 #
12
04
0C
0B
0>
0.
00
01
0'
0&
0$
#760000
b11 #
14
1C
0A
0/
11
1'
0%
#800000
b10 #
b0 #
02
04
1A
1/
1%
#840000
b10 #
14
1B
1>
1.
10
1&
1$
#880000
b11 #
b1 #
12
04
0C
0B
0>
0.
00
01
0'
0&
0$
#920000
b11 #
14
1C
0A
0/
11
1'
0%
#960000
b10 #
b0 #
02
04
1A
1/
1%
